^C:\USERS\CHESK\SOURCE\REPOS\CONSOLEAPPLICATION4\CONSOLEAPPLICATION4\DEBUG\CONSOLEAPPLICATION4.OBJ
C:\USERS\CHESK\SOURCE\REPOS\CONSOLEAPPLICATION4\DEBUG\CONSOLEAPPLICATION4.EXE
C:\USERS\CHESK\SOURCE\REPOS\CONSOLEAPPLICATION4\DEBUG\CONSOLEAPPLICATION4.ILK
C:\USERS\CHESK\SOURCE\REPOS\CONSOLEAPPLICATION4\DEBUG\CONSOLEAPPLICATION4.PDB
